tb_dnn_comprehensive.vcd
$date
	Fri May 22 10:57:28 2026
$end
$version
	Icarus Verilog
$end
$timescale
	1ps
$end
$scope module tb_dnn_comprehensive $end
$var wire 1 ! weights_loaded $end
$var wire 1 " system_ready $end
$var wire 1 # pipeline_active $end
$var wire 1 $ mem_write $end
$var wire 32 % mem_wdata [31:0] $end
$var wire 1 & mem_read $end
$var wire 20 ' mem_addr [19:0] $end
$var wire 4 ( layer_busy [3:0] $end
$var wire 1 ) inference_done $end
$var parameter 32 * ACC_W $end
$var parameter 32 + ADDR_W $end
$var parameter 32 , CLK_PERIOD $end
$var parameter 32 - DATA_W $end
$var parameter 32 . EST_LATENCY_CYCLES $end
$var parameter 32 / INFERENCES_IN_STRESS $end
$var real 1 0 LATENCY_TOLERANCE_PCT $end
$var parameter 32 1 MEM_ADDR_W $end
$var parameter 32 2 MEM_DATA_W $end
$var parameter 32 3 NUM_LAYERS $end
$var parameter 32 4 NUM_STAGES $end
$var parameter 32 5 N_DUT $end
$var parameter 32 6 USE_RRM $end
$var reg 1 7 clk $end
$var reg 20 8 input_base_addr [19:0] $end
$var reg 4 9 layer_busy_prev [3:0] $end
$var reg 1 : load_weights $end
$var reg 32 ; mem_rdata [31:0] $end
$var reg 1 < mem_rdata_valid $end
$var reg 20 = output_base_addr [19:0] $end
$var reg 1 > rst $end
$var reg 1 ? start_inference $end
$var reg 16 @ tc11_hw_val [15:0] $end
$var reg 80 A weights_base_addr [79:0] $end
$var real 1 B cyc_avg $end
$var integer 32 C cyc_max [31:0] $end
$var integer 32 D cyc_min [31:0] $end
$var integer 32 E cyc_sum [31:0] $end
$var integer 32 F cycles_first [31:0] $end
$var integer 32 G fail_count [31:0] $end
$var integer 32 H i [31:0] $end
$var integer 32 I k [31:0] $end
$var integer 32 J pass_count [31:0] $end
$var real 1 K slack_pct $end
$var integer 32 L tc11_diff [31:0] $end
$var integer 32 M tc11_i [31:0] $end
$var integer 32 N tc11_matches [31:0] $end
$var integer 32 O tc11_max_abs_diff [31:0] $end
$var integer 32 P tc11_mismatches [31:0] $end
$var integer 32 Q tc_count [31:0] $end
$scope function expected_layer_n $end
$var integer 32 R idx [31:0] $end
$upscope $end
$scope module dut $end
$var wire 1 7 clk $end
$var wire 20 S input_base_addr [19:0] $end
$var wire 1 : load_weights $end
$var wire 32 T mem_rdata [31:0] $end
$var wire 1 < mem_rdata_valid $end
$var wire 20 U output_base_addr [19:0] $end
$var wire 1 > rst $end
$var wire 1 ? start_inference $end
$var wire 80 V weights_base_addr [79:0] $end
$var parameter 32 W ACC_W $end
$var parameter 32 X ADDR_W $end
$var parameter 32 Y CYCLES_PER_LAYER $end
$var parameter 32 Z DATA_W $end
$var parameter 32 [ MEM_ADDR_W $end
$var parameter 32 \ MEM_DATA_W $end
$var parameter 32 ] N $end
$var parameter 32 ^ NUM_LAYERS $end
$var parameter 4 _ S_DONE $end
$var parameter 4 ` S_IDLE $end
$var parameter 4 a S_LOAD_WGT $end
$var parameter 4 b S_NEXT_LAYER $end
$var parameter 4 c S_RST $end
$var parameter 4 d S_RUN_LAYER $end
$var parameter 4 e S_WRITE_OUT $end
$var reg 1 ) inference_done $end
$var reg 4 f layer_busy [3:0] $end
$var reg 20 g mem_addr [19:0] $end
$var reg 1 & mem_read $end
$var reg 32 h mem_wdata [31:0] $end
$var reg 1 $ mem_write $end
$var reg 1 # pipeline_active $end
$var reg 4 i state [3:0] $end
$var reg 1 " system_ready $end
$var reg 1 ! weights_loaded $end
$var integer 32 j current_layer [31:0] $end
$var integer 32 k cycle_counter [31:0] $end
$var integer 32 l out_addr_off [31:0] $end
$upscope $end
$scope begin $ivl_for_loop0 $end
$var integer 32 m li [31:0] $end
$upscope $end
$scope begin output_scan $end
$var integer 32 n nonzero [31:0] $end
$var integer 32 o total [31:0] $end
$upscope $end
$scope begin tc2_wait $end
$var integer 32 p t [31:0] $end
$upscope $end
$scope begin tc5_loop $end
$var reg 256 q tc5_name [255:0] $end
$upscope $end
$scope begin tc8_wait $end
$var integer 32 r t [31:0] $end
$upscope $end
$scope task banner $end
$upscope $end
$scope task check_eq $end
$upscope $end
$scope task check_range $end
$upscope $end
$scope task check_true $end
$upscope $end
$scope task do_reset $end
$scope begin $ivl_for_loop1 $end
$upscope $end
$upscope $end
$scope task init_memory_pattern $end
$upscope $end
$scope task pulse_load_weights $end
$upscope $end
$scope task pulse_start_inference $end
$upscope $end
$scope task run_one_inference $end
$upscope $end
$upscope $end
$enddefinitions $end
$comment Show the parameter values. $end
$dumpall
b101 e
b11 d
b0 c
b100 b
b10 a
b1 `
b110 _
b100 ^
b100000 ]
b100000 \
b10100 [
b10000 Z
b11101111011 Y
b1010 X
b100000 W
b1 6
b100000 5
b1 4
b100 3
b100000 2
b10100 1
r30 0
b100 /
b1110111101111 .
b10000 -
b1010 ,
b1010 +
b100000 *
$end
#0
$dumpvars
bx r
bx q
bx p
bx o
bx n
b0 m
b0 l
b0 k
b0 j
b0 i
b0 h
b0 g
b0 f
b110000101000000000001100000000000000000010000000010000000000100000000000000000 V
b10000000000000000 U
bx T
b0 S
b11 R
b0 Q
bx P
bx O
bx N
bx M
bx L
r0 K
b0 J
bx I
b100 H
b0 G
bx F
bx E
bx D
bx C
r0 B
b110000101000000000001100000000000000000010000000010000000000100000000000000000 A
bx @
0?
1>
b10000000000000000 =
x<
bx ;
0:
b0 9
b0 8
07
0)
b0 (
b0 '
0&
b0 %
0$
0#
0"
0!
$end
#5000
0<
17
#10000
07
#15000
17
#20000
07
#25000
17
#30000
07
#35000
17
#40000
07
#45000
17
#50000
07
#55000
17
#60000
07
#65000
17
#70000
07
#75000
17
#80000
07
#85000
17
#90000
07
#95000
17
#100000
0>
07
#105000
1"
b1 i
b100 m
17
#110000
07
#115000
b100 m
17
#120000
07
#125000
b100 m
17
#130000
07
#135000
b100 m
17
#140000
07
#145000
b100 m
17
#150000
07
#155000
b100 m
17
#160000
07
#165000
b100 m
17
#170000
07
#175000
b100 m
17
#180000
07
#185000
b100 m
17
#190000
07
#195000
b100 m
17
#200000
07
#205000
b100 m
17
#210000
07
#215000
b100 m
17
#220000
07
#225000
b100 m
17
#230000
07
#235000
b100 m
17
#240000
07
#245000
b100 m
17
#250000
07
#255000
b100 m
17
#260000
07
#265000
b100 m
17
#270000
07
#275000
b100 m
17
#280000
07
#285000
b100 m
17
#290000
07
#295000
b100 m
17
#300000
07
#305000
b100 m
17
#310000
07
#315000
b100 m
17
#320000
07
#325000
b100 m
17
#330000
07
#335000
b100 m
17
#340000
07
#345000
b100 m
b100 J
b100 Q
17
#350000
1:
07
#355000
b10 i
b100 m
17
#360000
b110000110101000000 p
0:
07
#365000
b1 k
b100 m
b110000110100111111 p
17
#370000
07
#375000
b10 k
b100 m
b110000110100111110 p
17
#380000
07
#385000
b11 k
b100 m
b110000110100111101 p
17
#390000
07
#395000
b100 k
b100 m
b110000110100111100 p
17
#400000
07
#405000
b101 k
b100 m
b110000110100111011 p
17
#410000
07
#415000
b110 k
b100 m
b110000110100111010 p
17
#420000
07
#425000
b111 k
b100 m
b110000110100111001 p
17
#430000
07
#435000
b1000 k
b100 m
b110000110100111000 p
17
#440000
07
#445000
b1001 k
b100 m
b110000110100110111 p
17
#450000
07
#455000
b1010 k
b100 m
b110000110100110110 p
17
#460000
07
#465000
b1011 k
b100 m
b110000110100110101 p
17
#470000
07
#475000
b1100 k
b100 m
b110000110100110100 p
17
#480000
07
#485000
b1101 k
b100 m
b110000110100110011 p
17
#490000
07
#495000
b1110 k
b100 m
b110000110100110010 p
17
#500000
07
#505000
b1111 k
b100 m
b110000110100110001 p
17
#510000
07
#515000
b10000 k
b100 m
b110000110100110000 p
17
#520000
07
#525000
b10001 k
b100 m
b110000110100101111 p
17
#530000
07
#535000
b10010 k
b100 m
b110000110100101110 p
17
#540000
07
#545000
b10011 k
b100 m
b110000110100101101 p
17
#550000
07
#555000
b10100 k
b100 m
b110000110100101100 p
17
#560000
07
#565000
b10101 k
b100 m
b110000110100101011 p
17
#570000
07
#575000
b10110 k
b100 m
b110000110100101010 p
17
#580000
07
#585000
b10111 k
b100 m
b110000110100101001 p
17
#590000
07
#595000
b11000 k
b100 m
b110000110100101000 p
17
#600000
07
#605000
b11001 k
b100 m
b110000110100100111 p
17
#610000
07
#615000
b11010 k
b100 m
b110000110100100110 p
17
#620000
07
#625000
b11011 k
b100 m
b110000110100100101 p
17
#630000
07
#635000
b11100 k
b100 m
b110000110100100100 p
17
#640000
07
#645000
b11101 k
b100 m
b110000110100100011 p
17
#650000
07
#655000
b11110 k
b100 m
b110000110100100010 p
17
#660000
07
#665000
b11111 k
b100 m
b110000110100100001 p
17
#670000
07
#675000
b100000 k
b100 m
b110000110100100000 p
17
#680000
07
#685000
b100001 k
b100 m
b110000110100011111 p
17
#690000
07
#695000
b100010 k
b100 m
b110000110100011110 p
17
#700000
07
#705000
b100011 k
b100 m
b110000110100011101 p
17
#710000
07
#715000
b100100 k
b100 m
b110000110100011100 p
17
#720000
07
#725000
b100101 k
b100 m
b110000110100011011 p
17
#730000
07
#735000
b100110 k
b100 m
b110000110100011010 p
17
#740000
07
#745000
b100111 k
b100 m
b110000110100011001 p
17
#750000
07
#755000
b101000 k
b100 m
b110000110100011000 p
17
#760000
07
#765000
b101001 k
b100 m
b110000110100010111 p
17
#770000
07
#775000
b101010 k
b100 m
b110000110100010110 p
17
#780000
07
#785000
b101011 k
b100 m
b110000110100010101 p
17
#790000
07
#795000
b101100 k
b100 m
b110000110100010100 p
17
#800000
07
#805000
b101101 k
b100 m
b110000110100010011 p
17
#810000
07
#815000
b101110 k
b100 m
b110000110100010010 p
17
#820000
07
#825000
b101111 k
b100 m
b110000110100010001 p
17
#830000
07
#835000
b110000 k
b100 m
b110000110100010000 p
17
#840000
07
#845000
b110001 k
b100 m
b110000110100001111 p
17
#850000
07
#855000
b110010 k
b100 m
b110000110100001110 p
17
#860000
07
#865000
b1 i
1!
b110011 k
b100 m
b110000110100001101 p
17
#870000
07
#875000
0!
b100 m
b101 J
b101 Q
b110000110100001100 p
17
#880000
07
#885000
b100 m
17
#890000
07
#895000
b100 m
17
#900000
07
#905000
b100 m
17
#910000
07
#915000
b100 m
17
#920000
07
#925000
b100 m
17
#930000
07
#935000
b100 m
17
#940000
07
#945000
b100 m
17
#950000
07
#955000
b100 m
17
#960000
07
#965000
b100 m
17
#970000
07
#975000
b100 m
17
#980000
07
#985000
b100 m
17
#990000
1?
07
#995000
0"
1#
b1 (
b1 f
b0 k
b11 i
b100 m
17
#1000000
0?
07
#1005000
b1 k
b1 9
b100 m
17
#1010000
07
#1015000
b10 k
b100 m
17
#1020000
07
#1025000
b11 k
b100 m
17
#1030000
07
#1035000
b100 k
b100 m
17
#1040000
07
#1045000
b101 k
b100 m
17
#1050000
07
#1055000
b110 k
b100 m
17
#1060000
07
#1065000
b111 k
b100 m
17
#1070000
07
#1075000
b1000 k
b100 m
17
#1080000
07
#1085000
b1001 k
b100 m
17
#1090000
07
#1095000
b1010 k
b100 m
17
#1100000
07
#1105000
b1011 k
b100 m
17
#1110000
07
#1115000
b1100 k
b100 m
17
#1120000
07
#1125000
b1101 k
b100 m
17
#1130000
07
#1135000
b1110 k
b100 m
17
#1140000
07
#1145000
b1111 k
b100 m
17
#1150000
07
#1155000
b10000 k
b100 m
17
#1160000
07
#1165000
b10001 k
b100 m
17
#1170000
07
#1175000
b10010 k
b100 m
17
#1180000
07
#1185000
b10011 k
b100 m
17
#1190000
07
#1195000
b10100 k
b100 m
17
#1200000
07
#1205000
b10101 k
b100 m
17
#1210000
07
#1215000
b10110 k
b100 m
17
#1220000
07
#1225000
b10111 k
b100 m
17
#1230000
07
#1235000
b11000 k
b100 m
17
#1240000
07
#1245000
b11001 k
b100 m
17
#1250000
07
#1255000
b11010 k
b100 m
17
#1260000
07
#1265000
b11011 k
b100 m
17
#1270000
07
#1275000
b11100 k
b100 m
17
#1280000
07
#1285000
b11101 k
b100 m
17
#1290000
07
#1295000
b11110 k
b100 m
17
#1300000
07
#1305000
b11111 k
b100 m
17
#1310000
07
#1315000
b100000 k
b100 m
17
#1320000
07
#1325000
b100001 k
b100 m
17
#1330000
07
#1335000
b100010 k
b100 m
17
#1340000
07
#1345000
b100011 k
b100 m
17
#1350000
07
#1355000
b100100 k
b100 m
17
#1360000
07
#1365000
b100101 k
b100 m
17
#1370000
07
#1375000
b100110 k
b100 m
17
#1380000
07
#1385000
b100111 k
b100 m
17
#1390000
07
#1395000
b101000 k
b100 m
17
#1400000
07
#1405000
b101001 k
b100 m
17
#1410000
07
#1415000
b101010 k
b100 m
17
#1420000
07
#1425000
b101011 k
b100 m
17
#1430000
07
#1435000
b101100 k
b100 m
17
#1440000
07
#1445000
b101101 k
b100 m
17
#1450000
07
#1455000
b101110 k
b100 m
17
#1460000
07
#1465000
b101111 k
b100 m
17
#1470000
07
#1475000
b110000 k
b100 m
17
#1480000
07
#1485000
b110001 k
b100 m
17
#1490000
07
#1495000
b110010 k
b100 m
17
#1500000
07
#1505000
b110011 k
b100 m
17
#1510000
07
#1515000
b110100 k
b100 m
17
#1520000
07
#1525000
b110101 k
b100 m
17
#1530000
07
#1535000
b110110 k
b100 m
17
#1540000
07
#1545000
b110111 k
b100 m
17
#1550000
07
#1555000
b111000 k
b100 m
17
#1560000
07
#1565000
b111001 k
b100 m
17
#1570000
07
#1575000
b111010 k
b100 m
17
#1580000
07
#1585000
b111011 k
b100 m
17
#1590000
07
#1595000
b111100 k
b100 m
17
#1600000
07
#1605000
b111101 k
b100 m
17
#1610000
07
#1615000
b111110 k
b100 m
17
#1620000
07
#1625000
b111111 k
b100 m
17
#1630000
07
#1635000
b1000000 k
b100 m
17
#1640000
07
#1645000
b1000001 k
b100 m
17
#1650000
07
#1655000
b1000010 k
b100 m
17
#1660000
07
#1665000
b1000011 k
b100 m
17
#1670000
07
#1675000
b1000100 k
b100 m
17
#1680000
07
#1685000
b1000101 k
b100 m
17
#1690000
07
#1695000
b1000110 k
b100 m
17
#1700000
07
#1705000
b1000111 k
b100 m
17
#1710000
07
#1715000
b1001000 k
b100 m
17
#1720000
07
#1725000
b1001001 k
b100 m
17
#1730000
07
#1735000
b1001010 k
b100 m
17
#1740000
07
#1745000
b1001011 k
b100 m
17
#1750000
07
#1755000
b1001100 k
b100 m
17
#1760000
07
#1765000
b1001101 k
b100 m
17
#1770000
07
#1775000
b1001110 k
b100 m
17
#1780000
07
#1785000
b1001111 k
b100 m
17
#1790000
07
#1795000
b1010000 k
b100 m
17
#1800000
07
#1805000
b1010001 k
b100 m
17
#1810000
07
#1815000
b1010010 k
b100 m
17
#1820000
07
#1825000
b1010011 k
b100 m
17
#1830000
07
#1835000
b1010100 k
b100 m
17
#1840000
07
#1845000
b1010101 k
b100 m
17
#1850000
07
#1855000
b1010110 k
b100 m
17
#1860000
07
#1865000
b1010111 k
b100 m
17
#1870000
07
#1875000
b1011000 k
b100 m
17
#1880000
07
#1885000
b1011001 k
b100 m
17
#1890000
07
#1895000
b1011010 k
b100 m
17
#1900000
07
#1905000
b1011011 k
b100 m
17
#1910000
07
#1915000
b1011100 k
b100 m
17
#1920000
07
#1925000
b1011101 k
b100 m
17
#1930000
07
#1935000
b1011110 k
b100 m
17
#1940000
07
#1945000
b1011111 k
b100 m
17
#1950000
07
#1955000
b1100000 k
b100 m
17
#1960000
07
#1965000
b1100001 k
b100 m
17
#1970000
07
#1975000
b1100010 k
b100 m
17
#1980000
07
#1985000
b1100011 k
b100 m
17
#1990000
07
#1995000
b1100100 k
b100 m
17
#2000000
07
#2005000
b1100101 k
b100 m
17
#2010000
07
#2015000
b1100110 k
b100 m
17
#2020000
07
#2025000
b1100111 k
b100 m
17
#2030000
07
#2035000
b1101000 k
b100 m
17
#2040000
07
#2045000
b1101001 k
b100 m
17
#2050000
07
#2055000
b1101010 k
b100 m
17
#2060000
07
#2065000
b1101011 k
b100 m
17
#2070000
07
#2075000
b1101100 k
b100 m
17
#2080000
07
#2085000
b1101101 k
b100 m
17
#2090000
07
#2095000
b1101110 k
b100 m
17
#2100000
07
#2105000
b1101111 k
b100 m
17
#2110000
07
#2115000
b1110000 k
b100 m
17
#2120000
07
#2125000
b1110001 k
b100 m
17
#2130000
07
#2135000
b1110010 k
b100 m
17
#2140000
07
#2145000
b1110011 k
b100 m
17
#2150000
07
#2155000
b1110100 k
b100 m
17
#2160000
07
#2165000
b1110101 k
b100 m
17
#2170000
07
#2175000
b1110110 k
b100 m
17
#2180000
07
#2185000
b1110111 k
b100 m
17
#2190000
07
#2195000
b1111000 k
b100 m
17
#2200000
07
#2205000
b1111001 k
b100 m
17
#2210000
07
#2215000
b1111010 k
b100 m
17
#2220000
07
#2225000
b1111011 k
b100 m
17
#2230000
07
#2235000
b1111100 k
b100 m
17
#2240000
07
#2245000
b1111101 k
b100 m
17
#2250000
07
#2255000
b1111110 k
b100 m
17
#2260000
07
#2265000
b1111111 k
b100 m
17
#2270000
07
#2275000
b10000000 k
b100 m
17
#2280000
07
#2285000
b10000001 k
b100 m
17
#2290000
07
#2295000
b10000010 k
b100 m
17
#2300000
07
#2305000
b10000011 k
b100 m
17
#2310000
07
#2315000
b10000100 k
b100 m
17
#2320000
07
#2325000
b10000101 k
b100 m
17
#2330000
07
#2335000
b10000110 k
b100 m
17
#2340000
07
#2345000
b10000111 k
b100 m
17
#2350000
07
#2355000
b10001000 k
b100 m
17
#2360000
07
#2365000
b10001001 k
b100 m
17
#2370000
07
#2375000
b10001010 k
b100 m
17
#2380000
07
#2385000
b10001011 k
b100 m
17
#2390000
07
#2395000
b10001100 k
b100 m
17
#2400000
07
#2405000
b10001101 k
b100 m
17
#2410000
07
#2415000
b10001110 k
b100 m
17
#2420000
07
#2425000
b10001111 k
b100 m
17
#2430000
07
#2435000
b10010000 k
b100 m
17
#2440000
07
#2445000
b10010001 k
b100 m
17
#2450000
07
#2455000
b10010010 k
b100 m
17
#2460000
07
#2465000
b10010011 k
b100 m
17
#2470000
07
#2475000
b10010100 k
b100 m
17
#2480000
07
#2485000
b10010101 k
b100 m
17
#2490000
07
#2495000
b10010110 k
b100 m
17
#2500000
07
#2505000
b10010111 k
b100 m
17
#2510000
07
#2515000
b10011000 k
b100 m
17
#2520000
07
#2525000
b10011001 k
b100 m
17
#2530000
07
#2535000
b10011010 k
b100 m
17
#2540000
07
#2545000
b10011011 k
b100 m
17
#2550000
07
#2555000
b10011100 k
b100 m
17
#2560000
07
#2565000
b10011101 k
b100 m
17
#2570000
07
#2575000
b10011110 k
b100 m
17
#2580000
07
#2585000
b10011111 k
b100 m
17
#2590000
07
#2595000
b10100000 k
b100 m
17
#2600000
07
#2605000
b10100001 k
b100 m
17
#2610000
07
#2615000
b10100010 k
b100 m
17
#2620000
07
#2625000
b10100011 k
b100 m
17
#2630000
07
#2635000
b10100100 k
b100 m
17
#2640000
07
#2645000
b10100101 k
b100 m
17
#2650000
07
#2655000
b10100110 k
b100 m
17
#2660000
07
#2665000
b10100111 k
b100 m
17
#2670000
07
#2675000
b10101000 k
b100 m
17
#2680000
07
#2685000
b10101001 k
b100 m
17
#2690000
07
#2695000
b10101010 k
b100 m
17
#2700000
07
#2705000
b10101011 k
b100 m
17
#2710000
07
#2715000
b10101100 k
b100 m
17
#2720000
07
#2725000
b10101101 k
b100 m
17
#2730000
07
#2735000
b10101110 k
b100 m
17
#2740000
07
#2745000
b10101111 k
b100 m
17
#2750000
07
#2755000
b10110000 k
b100 m
17
#2760000
07
#2765000
b10110001 k
b100 m
17
#2770000
07
#2775000
b10110010 k
b100 m
17
#2780000
07
#2785000
b10110011 k
b100 m
17
#2790000
07
#2795000
b10110100 k
b100 m
17
#2800000
07
#2805000
b10110101 k
b100 m
17
#2810000
07
#2815000
b10110110 k
b100 m
17
#2820000
07
#2825000
b10110111 k
b100 m
17
#2830000
07
#2835000
b10111000 k
b100 m
17
#2840000
07
#2845000
b10111001 k
b100 m
17
#2850000
07
#2855000
b10111010 k
b100 m
17
#2860000
07
#2865000
b10111011 k
b100 m
17
#2870000
07
#2875000
b10111100 k
b100 m
17
#2880000
07
#2885000
b10111101 k
b100 m
17
#2890000
07
#2895000
b10111110 k
b100 m
17
#2900000
07
#2905000
b10111111 k
b100 m
17
#2910000
07
#2915000
b11000000 k
b100 m
17
#2920000
07
#2925000
b11000001 k
b100 m
17
#2930000
07
#2935000
b11000010 k
b100 m
17
#2940000
07
#2945000
b11000011 k
b100 m
17
#2950000
07
#2955000
b11000100 k
b100 m
17
#2960000
07
#2965000
b11000101 k
b100 m
17
#2970000
07
#2975000
b11000110 k
b100 m
17
#2980000
07
#2985000
b11000111 k
b100 m
17
#2990000
07
#2995000
b11001000 k
b100 m
17
#3000000
07
#3005000
b11001001 k
b100 m
17
#3010000
07
#3015000
b11001010 k
b100 m
17
#3020000
07
#3025000
b11001011 k
b100 m
17
#3030000
07
#3035000
b11001100 k
b100 m
17
#3040000
07
#3045000
b11001101 k
b100 m
17
#3050000
07
#3055000
b11001110 k
b100 m
17
#3060000
07
#3065000
b11001111 k
b100 m
17
#3070000
07
#3075000
b11010000 k
b100 m
17
#3080000
07
#3085000
b11010001 k
b100 m
17
#3090000
07
#3095000
b11010010 k
b100 m
17
#3100000
07
#3105000
b11010011 k
b100 m
17
#3110000
07
#3115000
b11010100 k
b100 m
17
#3120000
07
#3125000
b11010101 k
b100 m
17
#3130000
07
#3135000
b11010110 k
b100 m
17
#3140000
07
#3145000
b11010111 k
b100 m
17
#3150000
07
#3155000
b11011000 k
b100 m
17
#3160000
07
#3165000
b11011001 k
b100 m
17
#3170000
07
#3175000
b11011010 k
b100 m
17
#3180000
07
#3185000
b11011011 k
b100 m
17
#3190000
07
#3195000
b11011100 k
b100 m
17
#3200000
07
#3205000
b11011101 k
b100 m
17
#3210000
07
#3215000
b11011110 k
b100 m
17
#3220000
07
#3225000
b11011111 k
b100 m
17
#3230000
07
#3235000
b11100000 k
b100 m
17
#3240000
07
#3245000
b11100001 k
b100 m
17
#3250000
07
#3255000
b11100010 k
b100 m
17
#3260000
07
#3265000
b11100011 k
b100 m
17
#3270000
07
#3275000
b11100100 k
b100 m
17
#3280000
07
#3285000
b11100101 k
b100 m
17
#3290000
07
#3295000
b11100110 k
b100 m
17
#3300000
07
#3305000
b11100111 k
b100 m
17
#3310000
07
#3315000
b11101000 k
b100 m
17
#3320000
07
#3325000
b11101001 k
b100 m
17
#3330000
07
#3335000
b11101010 k
b100 m
17
#3340000
07
#3345000
b11101011 k
b100 m
17
#3350000
07
#3355000
b11101100 k
b100 m
17
#3360000
07
#3365000
b11101101 k
b100 m
17
#3370000
07
#3375000
b11101110 k
b100 m
17
#3380000
07
#3385000
b11101111 k
b100 m
17
#3390000
07
#3395000
b11110000 k
b100 m
17
#3400000
07
#3405000
b11110001 k
b100 m
17
#3410000
07
#3415000
b11110010 k
b100 m
17
#3420000
07
#3425000
b11110011 k
b100 m
17
#3430000
07
#3435000
b11110100 k
b100 m
17
#3440000
07
#3445000
b11110101 k
b100 m
17
#3450000
07
#3455000
b11110110 k
b100 m
17
#3460000
07
#3465000
b11110111 k
b100 m
17
#3470000
07
#3475000
b11111000 k
b100 m
17
#3480000
07
#3485000
b11111001 k
b100 m
17
#3490000
07
#3495000
b11111010 k
b100 m
17
#3500000
07
#3505000
b11111011 k
b100 m
17
#3510000
07
#3515000
b11111100 k
b100 m
17
#3520000
07
#3525000
b11111101 k
b100 m
17
#3530000
07
#3535000
b11111110 k
b100 m
17
#3540000
07
#3545000
b11111111 k
b100 m
17
#3550000
07
#3555000
b100000000 k
b100 m
17
#3560000
07
#3565000
b100000001 k
b100 m
17
#3570000
07
#3575000
b100000010 k
b100 m
17
#3580000
07
#3585000
b100000011 k
b100 m
17
#3590000
07
#3595000
b100000100 k
b100 m
17
#3600000
07
#3605000
b100000101 k
b100 m
17
#3610000
07
#3615000
b100000110 k
b100 m
17
#3620000
07
#3625000
b100000111 k
b100 m
17
#3630000
07
#3635000
b100001000 k
b100 m
17
#3640000
07
#3645000
b100001001 k
b100 m
17
#3650000
07
#3655000
b100001010 k
b100 m
17
#3660000
07
#3665000
b100001011 k
b100 m
17
#3670000
07
#3675000
b100001100 k
b100 m
17
#3680000
07
#3685000
b100001101 k
b100 m
17
#3690000
07
#3695000
b100001110 k
b100 m
17
#3700000
07
#3705000
b100001111 k
b100 m
17
#3710000
07
#3715000
b100010000 k
b100 m
17
#3720000
07
#3725000
b100010001 k
b100 m
17
#3730000
07
#3735000
b100010010 k
b100 m
17
#3740000
07
#3745000
b100010011 k
b100 m
17
#3750000
07
#3755000
b100010100 k
b100 m
17
#3760000
07
#3765000
b100010101 k
b100 m
17
#3770000
07
#3775000
b100010110 k
b100 m
17
#3780000
07
#3785000
b100010111 k
b100 m
17
#3790000
07
#3795000
b100011000 k
b100 m
17
#3800000
07
#3805000
b100011001 k
b100 m
17
#3810000
07
#3815000
b100011010 k
b100 m
17
#3820000
07
#3825000
b100011011 k
b100 m
17
#3830000
07
#3835000
b100011100 k
b100 m
17
#3840000
07
#3845000
b100011101 k
b100 m
17
#3850000
07
#3855000
b100011110 k
b100 m
17
#3860000
07
#3865000
b100011111 k
b100 m
17
#3870000
07
#3875000
b100100000 k
b100 m
17
#3880000
07
#3885000
b100100001 k
b100 m
17
#3890000
07
#3895000
b100100010 k
b100 m
17
#3900000
07
#3905000
b100100011 k
b100 m
17
#3910000
07
#3915000
b100100100 k
b100 m
17
#3920000
07
#3925000
b100100101 k
b100 m
17
#3930000
07
#3935000
b100100110 k
b100 m
17
#3940000
07
#3945000
b100100111 k
b100 m
17
#3950000
07
#3955000
b100101000 k
b100 m
17
#3960000
07
#3965000
b100101001 k
b100 m
17
#3970000
07
#3975000
b100101010 k
b100 m
17
#3980000
07
#3985000
b100101011 k
b100 m
17
#3990000
07
#3995000
b100101100 k
b100 m
17
#4000000
07
#4005000
b100101101 k
b100 m
17
#4010000
07
#4015000
b100101110 k
b100 m
17
#4020000
07
#4025000
b100101111 k
b100 m
17
#4030000
07
#4035000
b100110000 k
b100 m
17
#4040000
07
#4045000
b100110001 k
b100 m
17
#4050000
07
#4055000
b100110010 k
b100 m
17
#4060000
07
#4065000
b100110011 k
b100 m
17
#4070000
07
#4075000
b100110100 k
b100 m
17
#4080000
07
#4085000
b100110101 k
b100 m
17
#4090000
07
#4095000
b100110110 k
b100 m
17
#4100000
07
#4105000
b100110111 k
b100 m
17
#4110000
07
#4115000
b100111000 k
b100 m
17
#4120000
07
#4125000
b100111001 k
b100 m
17
#4130000
07
#4135000
b100111010 k
b100 m
17
#4140000
07
#4145000
b100111011 k
b100 m
17
#4150000
07
#4155000
b100111100 k
b100 m
17
#4160000
07
#4165000
b100111101 k
b100 m
17
#4170000
07
#4175000
b100111110 k
b100 m
17
#4180000
07
#4185000
b100111111 k
b100 m
17
#4190000
07
#4195000
b101000000 k
b100 m
17
#4200000
07
#4205000
b101000001 k
b100 m
17
#4210000
07
#4215000
b101000010 k
b100 m
17
#4220000
07
#4225000
b101000011 k
b100 m
17
#4230000
07
#4235000
b101000100 k
b100 m
17
#4240000
07
#4245000
b101000101 k
b100 m
17
#4250000
07
#4255000
b101000110 k
b100 m
17
#4260000
07
#4265000
b101000111 k
b100 m
17
#4270000
07
#4275000
b101001000 k
b100 m
17
#4280000
07
#4285000
b101001001 k
b100 m
17
#4290000
07
#4295000
b101001010 k
b100 m
17
#4300000
07
#4305000
b101001011 k
b100 m
17
#4310000
07
#4315000
b101001100 k
b100 m
17
#4320000
07
#4325000
b101001101 k
b100 m
17
#4330000
07
#4335000
b101001110 k
b100 m
17
#4340000
07
#4345000
b101001111 k
b100 m
17
#4350000
07
#4355000
b101010000 k
b100 m
17
#4360000
07
#4365000
b101010001 k
b100 m
17
#4370000
07
#4375000
b101010010 k
b100 m
17
#4380000
07
#4385000
b101010011 k
b100 m
17
#4390000
07
#4395000
b101010100 k
b100 m
17
#4400000
07
#4405000
b101010101 k
b100 m
17
#4410000
07
#4415000
b101010110 k
b100 m
17
#4420000
07
#4425000
b101010111 k
b100 m
17
#4430000
07
#4435000
b101011000 k
b100 m
17
#4440000
07
#4445000
b101011001 k
b100 m
17
#4450000
07
#4455000
b101011010 k
b100 m
17
#4460000
07
#4465000
b101011011 k
b100 m
17
#4470000
07
#4475000
b101011100 k
b100 m
17
#4480000
07
#4485000
b101011101 k
b100 m
17
#4490000
07
#4495000
b101011110 k
b100 m
17
#4500000
07
#4505000
b101011111 k
b100 m
17
#4510000
07
#4515000
b101100000 k
b100 m
17
#4520000
07
#4525000
b101100001 k
b100 m
17
#4530000
07
#4535000
b101100010 k
b100 m
17
#4540000
07
#4545000
b101100011 k
b100 m
17
#4550000
07
#4555000
b101100100 k
b100 m
17
#4560000
07
#4565000
b101100101 k
b100 m
17
#4570000
07
#4575000
b101100110 k
b100 m
17
#4580000
07
#4585000
b101100111 k
b100 m
17
#4590000
07
#4595000
b101101000 k
b100 m
17
#4600000
07
#4605000
b101101001 k
b100 m
17
#4610000
07
#4615000
b101101010 k
b100 m
17
#4620000
07
#4625000
b101101011 k
b100 m
17
#4630000
07
#4635000
b101101100 k
b100 m
17
#4640000
07
#4645000
b101101101 k
b100 m
17
#4650000
07
#4655000
b101101110 k
b100 m
17
#4660000
07
#4665000
b101101111 k
b100 m
17
#4670000
07
#4675000
b101110000 k
b100 m
17
#4680000
07
#4685000
b101110001 k
b100 m
17
#4690000
07
#4695000
b101110010 k
b100 m
17
#4700000
07
#4705000
b101110011 k
b100 m
17
#4710000
07
#4715000
b101110100 k
b100 m
17
#4720000
07
#4725000
b101110101 k
b100 m
17
#4730000
07
#4735000
b101110110 k
b100 m
17
#4740000
07
