tb_zedboard_timing.vcd
$date
	Fri May 22 10:57:28 2026
$end
$version
	Icarus Verilog
$end
$timescale
	1ps
$end
$scope module tb_zedboard_timing $end
$var wire 1 ! weights_loaded $end
$var wire 1 " system_ready $end
$var wire 1 # pipeline_active $end
$var wire 1 $ mem_write $end
$var wire 32 % mem_wdata [31:0] $end
$var wire 1 & mem_read $end
$var wire 20 ' mem_addr [19:0] $end
$var wire 4 ( layer_busy [3:0] $end
$var wire 1 ) inference_done $end
$var real 1 * CLK_PERIOD_NS $end
$var parameter 32 + EST_LATENCY_CYCLES $end
$var parameter 32 , MEM_ADDR_W $end
$var parameter 32 - MEM_DATA_W $end
$var parameter 32 . NUM_LAYERS $end
$var real 1 / T_CKO_NS $end
$var real 1 0 T_COMB_NS $end
$var real 1 1 T_HOLD_NS $end
$var real 1 2 T_SETUP_NS $end
$var real 1 3 T_SRC_TO_DUT $end
$var real 1 4 T_UNCERT_NS $end
$var reg 1 5 clk $end
$var reg 16 6 gold_hw_val [15:0] $end
$var reg 20 7 input_base_addr [19:0] $end
$var reg 1 8 load_weights_dut $end
$var reg 1 9 load_weights_src $end
$var reg 32 : mem_rdata [31:0] $end
$var reg 1 ; mem_rdata_valid $end
$var reg 20 < output_base_addr [19:0] $end
$var reg 1 = rst_dut $end
$var reg 1 > rst_src $end
$var reg 1 ? start_inference_dut $end
$var reg 1 @ start_inference_src $end
$var reg 80 A weights_base_addr [79:0] $end
$var integer 32 B fail_count [31:0] $end
$var integer 32 C gold_diff [31:0] $end
$var integer 32 D gold_i [31:0] $end
$var integer 32 E gold_matches [31:0] $end
$var integer 32 F gold_max_abs_diff [31:0] $end
$var integer 32 G gold_mismatches [31:0] $end
$var integer 32 H guard_left [31:0] $end
$var integer 32 I hold_violations [31:0] $end
$var integer 32 J i [31:0] $end
$var real 1 K last_change_lw $end
$var real 1 L last_change_rst $end
$var real 1 M last_change_si $end
$var real 1 N last_posedge_time $end
$var integer 32 O pass_count [31:0] $end
$var integer 32 P setup_violations [31:0] $end
$var real 1 Q slack_ns $end
$var integer 32 R tc_count [31:0] $end
$var real 1 S worst_hold_margin $end
$var real 1 T worst_setup_margin $end
$scope module dut $end
$var wire 1 5 clk $end
$var wire 20 U input_base_addr [19:0] $end
$var wire 1 8 load_weights $end
$var wire 32 V mem_rdata [31:0] $end
$var wire 1 ; mem_rdata_valid $end
$var wire 20 W output_base_addr [19:0] $end
$var wire 1 = rst $end
$var wire 1 ? start_inference $end
$var wire 80 X weights_base_addr [79:0] $end
$var parameter 32 Y ACC_W $end
$var parameter 32 Z ADDR_W $end
$var parameter 32 [ CYCLES_PER_LAYER $end
$var parameter 32 \ DATA_W $end
$var parameter 32 ] MEM_ADDR_W $end
$var parameter 32 ^ MEM_DATA_W $end
$var parameter 32 _ N $end
$var parameter 32 ` NUM_LAYERS $end
$var parameter 4 a S_DONE $end
$var parameter 4 b S_IDLE $end
$var parameter 4 c S_LOAD_WGT $end
$var parameter 4 d S_NEXT_LAYER $end
$var parameter 4 e S_RST $end
$var parameter 4 f S_RUN_LAYER $end
$var parameter 4 g S_WRITE_OUT $end
$var reg 1 ) inference_done $end
$var reg 4 h layer_busy [3:0] $end
$var reg 20 i mem_addr [19:0] $end
$var reg 1 & mem_read $end
$var reg 32 j mem_wdata [31:0] $end
$var reg 1 $ mem_write $end
$var reg 1 # pipeline_active $end
$var reg 4 k state [3:0] $end
$var reg 1 " system_ready $end
$var reg 1 ! weights_loaded $end
$var integer 32 l current_layer [31:0] $end
$var integer 32 m cycle_counter [31:0] $end
$var integer 32 n out_addr_off [31:0] $end
$upscope $end
$scope task banner $end
$upscope $end
$scope task check_eq $end
$upscope $end
$scope task check_ge_real $end
$upscope $end
$scope task check_hold $end
$upscope $end
$scope task check_setup $end
$upscope $end
$scope task check_true $end
$upscope $end
$scope task do_reset $end
$upscope $end
$scope task init_memory $end
$upscope $end
$scope task pulse_load_weights $end
$upscope $end
$scope task pulse_start_inference $end
$upscope $end
$upscope $end
$enddefinitions $end
$comment Show the parameter values. $end
$dumpall
b101 g
b11 f
b0 e
b100 d
b10 c
b1 b
b110 a
b100 `
b1000 _
b100000 ^
b10100 ]
b10000 \
b11101111011 [
b1010 Z
b100000 Y
r0.25 4
r8 3
r0.3 2
r0.1 1
r7.5 0
r0.5 /
b100 .
b100000 -
b10100 ,
b1110111101111 +
r10 *
$end
#0
$dumpvars
b0 n
b0 m
b0 l
b0 k
b0 j
b0 i
b0 h
b110000101000000000001100000000000000000010000000010000000000100000000000000000 X
b10000000000000000 W
bx V
b0 U
r1000000000 T
r1000000000 S
b1 R
r1.45 Q
b0 P
b1 O
r-1 N
r0 M
r0 L
r0 K
b100101100000 J
b0 I
bx H
bx G
bx F
bx E
bx D
bx C
b0 B
b110000101000000000001100000000000000000010000000010000000000100000000000000000 A
0@
0?
1>
1=
b10000000000000000 <
x;
bx :
09
08
b0 7
bx 6
05
0)
b0 (
b0 '
0&
b0 %
0$
0#
0"
0!
$end
#5000
0;
r5 N
15
#10000
05
#15000
r15 N
15
#20000
05
#25000
r25 N
15
#30000
05
#35000
r35 N
15
#40000
05
#45000
r45 N
15
#50000
05
#55000
r55 N
15
#60000
05
#65000
r65 N
15
#70000
05
#75000
r75 N
15
#80000
05
#85000
r85 N
15
#90000
05
#95000
r95 N
15
#100000
0>
05
#105000
r105 N
15
#108000
r2.9 S
r108 L
0=
#110000
05
#115000
1"
b1 k
r115 N
r6.7 T
15
#120000
05
#125000
r125 N
15
#130000
05
#135000
r135 N
15
#140000
05
#145000
r145 N
15
#150000
05
#155000
r155 N
15
#160000
05
#165000
r165 N
15
#170000
05
#175000
r175 N
15
#180000
05
#185000
r185 N
15
#190000
05
#195000
r195 N
15
#200000
05
#205000
r205 N
15
#210000
05
#215000
r215 N
15
#220000
05
#225000
r225 N
15
#230000
05
#235000
r235 N
15
#240000
05
#245000
r245 N
15
#250000
05
#255000
r255 N
15
#260000
05
#265000
r265 N
15
#270000
05
#275000
r275 N
15
#280000
05
#285000
r285 N
15
#290000
05
#295000
r295 N
15
#300000
05
#305000
r305 N
15
#310000
05
#315000
r315 N
15
#320000
05
#325000
r325 N
15
#330000
05
#335000
r335 N
15
#340000
05
#345000
r345 N
b10 O
b10 R
15
#350000
19
05
#355000
r355 N
15
#358000
r358 K
18
#360000
b110000110101000000 H
09
05
#365000
b10 k
r365 N
b110000110100111111 H
15
#368000
r368 K
08
#370000
05
#375000
b1 m
r375 N
b110000110100111110 H
15
#380000
05
#385000
b10 m
r385 N
b110000110100111101 H
15
#390000
05
#395000
b11 m
r395 N
b110000110100111100 H
15
#400000
05
#405000
b100 m
r405 N
b110000110100111011 H
15
#410000
05
#415000
b101 m
r415 N
b110000110100111010 H
15
#420000
05
#425000
b110 m
r425 N
b110000110100111001 H
15
#430000
05
#435000
b111 m
r435 N
b110000110100111000 H
15
#440000
05
#445000
b1000 m
r445 N
b110000110100110111 H
15
#450000
05
#455000
b1001 m
r455 N
b110000110100110110 H
15
#460000
05
#465000
b1010 m
r465 N
b110000110100110101 H
15
#470000
05
#475000
b1011 m
r475 N
b110000110100110100 H
15
#480000
05
#485000
b1100 m
r485 N
b110000110100110011 H
15
#490000
05
#495000
b1101 m
r495 N
b110000110100110010 H
15
#500000
05
#505000
b1110 m
r505 N
b110000110100110001 H
15
#510000
05
#515000
b1111 m
r515 N
b110000110100110000 H
15
#520000
05
#525000
b10000 m
r525 N
b110000110100101111 H
15
#530000
05
#535000
b10001 m
r535 N
b110000110100101110 H
15
#540000
05
#545000
b10010 m
r545 N
b110000110100101101 H
15
#550000
05
#555000
b10011 m
r555 N
b110000110100101100 H
15
#560000
05
#565000
b10100 m
r565 N
b110000110100101011 H
15
#570000
05
#575000
b10101 m
r575 N
b110000110100101010 H
15
#580000
05
#585000
b10110 m
r585 N
b110000110100101001 H
15
#590000
05
#595000
b10111 m
r595 N
b110000110100101000 H
15
#600000
05
#605000
b11000 m
r605 N
b110000110100100111 H
15
#610000
05
#615000
b11001 m
r615 N
b110000110100100110 H
15
#620000
05
#625000
b11010 m
r625 N
b110000110100100101 H
15
#630000
05
#635000
b11011 m
r635 N
b110000110100100100 H
15
#640000
05
#645000
b11100 m
r645 N
b110000110100100011 H
15
#650000
05
#655000
b11101 m
r655 N
b110000110100100010 H
15
#660000
05
#665000
b11110 m
r665 N
b110000110100100001 H
15
#670000
05
#675000
b11111 m
r675 N
b110000110100100000 H
15
#680000
05
#685000
b100000 m
r685 N
b110000110100011111 H
15
#690000
05
#695000
b100001 m
r695 N
b110000110100011110 H
15
#700000
05
#705000
b100010 m
r705 N
b110000110100011101 H
15
#710000
05
#715000
b100011 m
r715 N
b110000110100011100 H
15
#720000
05
#725000
b100100 m
r725 N
b110000110100011011 H
15
#730000
05
#735000
b100101 m
r735 N
b110000110100011010 H
15
#740000
05
#745000
b100110 m
r745 N
b110000110100011001 H
15
#750000
05
#755000
b100111 m
r755 N
b110000110100011000 H
15
#760000
05
#765000
b101000 m
r765 N
b110000110100010111 H
15
#770000
05
#775000
b101001 m
r775 N
b110000110100010110 H
15
#780000
05
#785000
b101010 m
r785 N
b110000110100010101 H
15
#790000
05
#795000
b101011 m
r795 N
b110000110100010100 H
15
#800000
05
#805000
b101100 m
r805 N
b110000110100010011 H
15
#810000
05
#815000
b101101 m
r815 N
b110000110100010010 H
15
#820000
05
#825000
b101110 m
r825 N
b110000110100010001 H
15
#830000
05
#835000
b101111 m
r835 N
b110000110100010000 H
15
#840000
05
#845000
b110000 m
r845 N
b110000110100001111 H
15
#850000
05
#855000
b110001 m
r855 N
b110000110100001110 H
15
#860000
05
#865000
b110010 m
r865 N
b110000110100001101 H
15
#870000
05
#875000
b1 k
1!
b110011 m
r875 N
b110000110100001100 H
15
#880000
05
#885000
0!
r885 N
b11 O
b11 R
b110000110100001011 H
15
#890000
05
#895000
r895 N
15
#900000
1@
05
#905000
r905 N
15
#908000
r908 M
1?
#910000
b10010101101010110 H
0@
05
#915000
0"
1#
b1 (
b1 h
b0 m
b11 k
r915 N
b10010101101010101 H
15
#918000
r918 M
0?
#920000
05
#925000
b1 m
r925 N
b10010101101010100 H
15
#930000
05
#935000
b10 m
r935 N
b10010101101010011 H
15
#940000
05
#945000
b11 m
r945 N
b10010101101010010 H
15
#950000
05
#955000
b100 m
r955 N
b10010101101010001 H
15
#960000
05
#965000
b101 m
r965 N
b10010101101010000 H
15
#970000
05
#975000
b110 m
r975 N
b10010101101001111 H
15
#980000
05
#985000
b111 m
r985 N
b10010101101001110 H
15
#990000
05
#995000
b1000 m
r995 N
b10010101101001101 H
15
#1000000
05
#1005000
b1001 m
r1005 N
b10010101101001100 H
15
#1010000
05
#1015000
b1010 m
r1015 N
b10010101101001011 H
15
#1020000
05
#1025000
b1011 m
r1025 N
b10010101101001010 H
15
#1030000
05
#1035000
b1100 m
r1035 N
b10010101101001001 H
15
#1040000
05
#1045000
b1101 m
r1045 N
b10010101101001000 H
15
#1050000
05
#1055000
b1110 m
r1055 N
b10010101101000111 H
15
#1060000
05
#1065000
b1111 m
r1065 N
b10010101101000110 H
15
#1070000
05
#1075000
b10000 m
r1075 N
b10010101101000101 H
15
#1080000
05
#1085000
b10001 m
r1085 N
b10010101101000100 H
15
#1090000
05
#1095000
b10010 m
r1095 N
b10010101101000011 H
15
#1100000
05
#1105000
b10011 m
r1105 N
b10010101101000010 H
15
#1110000
05
#1115000
b10100 m
r1115 N
b10010101101000001 H
15
#1120000
05
#1125000
b10101 m
r1125 N
b10010101101000000 H
15
#1130000
05
#1135000
b10110 m
r1135 N
b10010101100111111 H
15
#1140000
05
#1145000
b10111 m
r1145 N
b10010101100111110 H
15
#1150000
05
#1155000
b11000 m
r1155 N
b10010101100111101 H
15
#1160000
05
#1165000
b11001 m
r1165 N
b10010101100111100 H
15
#1170000
05
#1175000
b11010 m
r1175 N
b10010101100111011 H
15
#1180000
05
#1185000
b11011 m
r1185 N
b10010101100111010 H
15
#1190000
05
#1195000
b11100 m
r1195 N
b10010101100111001 H
15
#1200000
05
#1205000
b11101 m
r1205 N
b10010101100111000 H
15
#1210000
05
#1215000
b11110 m
r1215 N
b10010101100110111 H
15
#1220000
05
#1225000
b11111 m
r1225 N
b10010101100110110 H
15
#1230000
05
#1235000
b100000 m
r1235 N
b10010101100110101 H
15
#1240000
05
#1245000
b100001 m
r1245 N
b10010101100110100 H
15
#1250000
05
#1255000
b100010 m
r1255 N
b10010101100110011 H
15
#1260000
05
#1265000
b100011 m
r1265 N
b10010101100110010 H
15
#1270000
05
#1275000
b100100 m
r1275 N
b10010101100110001 H
15
#1280000
05
#1285000
b100101 m
r1285 N
b10010101100110000 H
15
#1290000
05
#1295000
b100110 m
r1295 N
b10010101100101111 H
15
#1300000
05
#1305000
b100111 m
r1305 N
b10010101100101110 H
15
#1310000
05
#1315000
b101000 m
r1315 N
b10010101100101101 H
15
#1320000
05
#1325000
b101001 m
r1325 N
b10010101100101100 H
15
#1330000
05
#1335000
b101010 m
r1335 N
b10010101100101011 H
15
#1340000
05
#1345000
b101011 m
r1345 N
b10010101100101010 H
15
#1350000
05
#1355000
b101100 m
r1355 N
b10010101100101001 H
15
#1360000
05
#1365000
b101101 m
r1365 N
b10010101100101000 H
15
#1370000
05
#1375000
b101110 m
r1375 N
b10010101100100111 H
15
#1380000
05
#1385000
b101111 m
r1385 N
b10010101100100110 H
15
#1390000
05
#1395000
b110000 m
r1395 N
b10010101100100101 H
15
#1400000
05
#1405000
b110001 m
r1405 N
b10010101100100100 H
15
#1410000
05
#1415000
b110010 m
r1415 N
b10010101100100011 H
15
#1420000
05
#1425000
b110011 m
r1425 N
b10010101100100010 H
15
#1430000
05
#1435000
b110100 m
r1435 N
b10010101100100001 H
15
#1440000
05
#1445000
b110101 m
r1445 N
b10010101100100000 H
15
#1450000
05
#1455000
b110110 m
r1455 N
b10010101100011111 H
15
#1460000
05
#1465000
b110111 m
r1465 N
b10010101100011110 H
15
#1470000
05
#1475000
b111000 m
r1475 N
b10010101100011101 H
15
#1480000
05
#1485000
b111001 m
r1485 N
b10010101100011100 H
15
#1490000
05
#1495000
b111010 m
r1495 N
b10010101100011011 H
15
#1500000
05
#1505000
b111011 m
r1505 N
b10010101100011010 H
15
#1510000
05
#1515000
b111100 m
r1515 N
b10010101100011001 H
15
#1520000
05
#1525000
b111101 m
r1525 N
b10010101100011000 H
15
#1530000
05
#1535000
b111110 m
r1535 N
b10010101100010111 H
15
#1540000
05
#1545000
b111111 m
r1545 N
b10010101100010110 H
15
#1550000
05
#1555000
b1000000 m
r1555 N
b10010101100010101 H
15
#1560000
05
#1565000
b1000001 m
r1565 N
b10010101100010100 H
15
#1570000
05
#1575000
b1000010 m
r1575 N
b10010101100010011 H
15
#1580000
05
#1585000
b1000011 m
r1585 N
b10010101100010010 H
15
#1590000
05
#1595000
b1000100 m
r1595 N
b10010101100010001 H
15
#1600000
05
#1605000
b1000101 m
r1605 N
b10010101100010000 H
15
#1610000
05
#1615000
b1000110 m
r1615 N
b10010101100001111 H
15
#1620000
05
#1625000
b1000111 m
r1625 N
b10010101100001110 H
15
#1630000
05
#1635000
b1001000 m
r1635 N
b10010101100001101 H
15
#1640000
05
#1645000
b1001001 m
r1645 N
b10010101100001100 H
15
#1650000
05
#1655000
b1001010 m
r1655 N
b10010101100001011 H
15
#1660000
05
#1665000
b1001011 m
r1665 N
b10010101100001010 H
15
#1670000
05
#1675000
b1001100 m
r1675 N
b10010101100001001 H
15
#1680000
05
#1685000
b1001101 m
r1685 N
b10010101100001000 H
15
#1690000
05
#1695000
b1001110 m
r1695 N
b10010101100000111 H
15
#1700000
05
#1705000
b1001111 m
r1705 N
b10010101100000110 H
15
#1710000
05
#1715000
b1010000 m
r1715 N
b10010101100000101 H
15
#1720000
05
#1725000
b1010001 m
r1725 N
b10010101100000100 H
15
#1730000
05
#1735000
b1010010 m
r1735 N
b10010101100000011 H
15
#1740000
05
#1745000
b1010011 m
r1745 N
b10010101100000010 H
15
#1750000
05
#1755000
b1010100 m
r1755 N
b10010101100000001 H
15
#1760000
05
#1765000
b1010101 m
r1765 N
b10010101100000000 H
15
#1770000
05
#1775000
b1010110 m
r1775 N
b10010101011111111 H
15
#1780000
05
#1785000
b1010111 m
r1785 N
b10010101011111110 H
15
#1790000
05
#1795000
b1011000 m
r1795 N
b10010101011111101 H
15
#1800000
05
#1805000
b1011001 m
r1805 N
b10010101011111100 H
15
#1810000
05
#1815000
b1011010 m
r1815 N
b10010101011111011 H
15
#1820000
05
#1825000
b1011011 m
r1825 N
b10010101011111010 H
15
#1830000
05
#1835000
b1011100 m
r1835 N
b10010101011111001 H
15
#1840000
05
#1845000
b1011101 m
r1845 N
b10010101011111000 H
15
#1850000
05
#1855000
b1011110 m
r1855 N
b10010101011110111 H
15
#1860000
05
#1865000
b1011111 m
r1865 N
b10010101011110110 H
15
#1870000
05
#1875000
b1100000 m
r1875 N
b10010101011110101 H
15
#1880000
05
#1885000
b1100001 m
r1885 N
b10010101011110100 H
15
#1890000
05
#1895000
b1100010 m
r1895 N
b10010101011110011 H
15
#1900000
05
#1905000
b1100011 m
r1905 N
b10010101011110010 H
15
#1910000
05
#1915000
b1100100 m
r1915 N
b10010101011110001 H
15
#1920000
05
#1925000
b1100101 m
r1925 N
b10010101011110000 H
15
#1930000
05
#1935000
b1100110 m
r1935 N
b10010101011101111 H
15
#1940000
05
#1945000
b1100111 m
r1945 N
b10010101011101110 H
15
#1950000
05
#1955000
b1101000 m
r1955 N
b10010101011101101 H
15
#1960000
05
#1965000
b1101001 m
r1965 N
b10010101011101100 H
15
#1970000
05
#1975000
b1101010 m
r1975 N
b10010101011101011 H
15
#1980000
05
#1985000
b1101011 m
r1985 N
b10010101011101010 H
15
#1990000
05
#1995000
b1101100 m
r1995 N
b10010101011101001 H
15
#2000000
05
#2005000
b1101101 m
r2005 N
b10010101011101000 H
15
#2010000
05
#2015000
b1101110 m
r2015 N
b10010101011100111 H
15
#2020000
05
#2025000
b1101111 m
r2025 N
b10010101011100110 H
15
#2030000
05
#2035000
b1110000 m
r2035 N
b10010101011100101 H
15
#2040000
05
#2045000
b1110001 m
r2045 N
b10010101011100100 H
15
#2050000
05
#2055000
b1110010 m
r2055 N
b10010101011100011 H
15
#2060000
05
#2065000
b1110011 m
r2065 N
b10010101011100010 H
15
#2070000
05
#2075000
b1110100 m
r2075 N
b10010101011100001 H
15
#2080000
05
#2085000
b1110101 m
r2085 N
b10010101011100000 H
15
#2090000
05
#2095000
b1110110 m
r2095 N
b10010101011011111 H
15
#2100000
05
#2105000
b1110111 m
r2105 N
b10010101011011110 H
15
#2110000
05
#2115000
b1111000 m
r2115 N
b10010101011011101 H
15
#2120000
05
#2125000
b1111001 m
r2125 N
b10010101011011100 H
15
#2130000
05
#2135000
b1111010 m
r2135 N
b10010101011011011 H
15
#2140000
05
#2145000
b1111011 m
r2145 N
b10010101011011010 H
15
#2150000
05
#2155000
b1111100 m
r2155 N
b10010101011011001 H
15
#2160000
05
#2165000
b1111101 m
r2165 N
b10010101011011000 H
15
#2170000
05
#2175000
b1111110 m
r2175 N
b10010101011010111 H
15
#2180000
05
#2185000
b1111111 m
r2185 N
b10010101011010110 H
15
#2190000
05
#2195000
b10000000 m
r2195 N
b10010101011010101 H
15
#2200000
05
#2205000
b10000001 m
r2205 N
b10010101011010100 H
15
#2210000
05
#2215000
b10000010 m
r2215 N
b10010101011010011 H
15
#2220000
05
#2225000
b10000011 m
r2225 N
b10010101011010010 H
15
#2230000
05
#2235000
b10000100 m
r2235 N
b10010101011010001 H
15
#2240000
05
#2245000
b10000101 m
r2245 N
b10010101011010000 H
15
#2250000
05
#2255000
b10000110 m
r2255 N
b10010101011001111 H
15
#2260000
05
#2265000
b10000111 m
r2265 N
b10010101011001110 H
15
#2270000
05
#2275000
b10001000 m
r2275 N
b10010101011001101 H
15
#2280000
05
#2285000
b10001001 m
r2285 N
b10010101011001100 H
15
#2290000
05
#2295000
b10001010 m
r2295 N
b10010101011001011 H
15
#2300000
05
#2305000
b10001011 m
r2305 N
b10010101011001010 H
15
#2310000
05
#2315000
b10001100 m
r2315 N
b10010101011001001 H
15
#2320000
05
#2325000
b10001101 m
r2325 N
b10010101011001000 H
15
#2330000
05
#2335000
b10001110 m
r2335 N
b10010101011000111 H
15
#2340000
05
#2345000
b10001111 m
r2345 N
b10010101011000110 H
15
#2350000
05
#2355000
b10010000 m
r2355 N
b10010101011000101 H
15
#2360000
05
#2365000
b10010001 m
r2365 N
b10010101011000100 H
15
#2370000
05
#2375000
b10010010 m
r2375 N
b10010101011000011 H
15
#2380000
05
#2385000
b10010011 m
r2385 N
b10010101011000010 H
15
#2390000
05
#2395000
b10010100 m
r2395 N
b10010101011000001 H
15
#2400000
05
#2405000
b10010101 m
r2405 N
b10010101011000000 H
15
#2410000
05
#2415000
b10010110 m
r2415 N
b10010101010111111 H
15
#2420000
05
#2425000
b10010111 m
r2425 N
b10010101010111110 H
15
#2430000
05
#2435000
b10011000 m
r2435 N
b10010101010111101 H
15
#2440000
05
#2445000
b10011001 m
r2445 N
b10010101010111100 H
15
#2450000
05
#2455000
b10011010 m
r2455 N
b10010101010111011 H
15
#2460000
05
#2465000
b10011011 m
r2465 N
b10010101010111010 H
15
#2470000
05
#2475000
b10011100 m
r2475 N
b10010101010111001 H
15
#2480000
05
#2485000
b10011101 m
r2485 N
b10010101010111000 H
15
#2490000
05
#2495000
b10011110 m
r2495 N
b10010101010110111 H
15
#2500000
05
#2505000
b10011111 m
r2505 N
b10010101010110110 H
15
#2510000
05
#2515000
b10100000 m
r2515 N
b10010101010110101 H
15
#2520000
05
#2525000
b10100001 m
r2525 N
b10010101010110100 H
15
#2530000
05
#2535000
b10100010 m
r2535 N
b10010101010110011 H
15
#2540000
05
#2545000
b10100011 m
r2545 N
b10010101010110010 H
15
#2550000
05
#2555000
b10100100 m
r2555 N
b10010101010110001 H
15
#2560000
05
#2565000
b10100101 m
r2565 N
b10010101010110000 H
15
#2570000
05
#2575000
b10100110 m
r2575 N
b10010101010101111 H
15
#2580000
05
#2585000
b10100111 m
r2585 N
b10010101010101110 H
15
#2590000
05
#2595000
b10101000 m
r2595 N
b10010101010101101 H
15
#2600000
05
#2605000
b10101001 m
r2605 N
b10010101010101100 H
15
#2610000
05
#2615000
b10101010 m
r2615 N
b10010101010101011 H
15
#2620000
05
#2625000
b10101011 m
r2625 N
b10010101010101010 H
15
#2630000
05
#2635000
b10101100 m
r2635 N
b10010101010101001 H
15
#2640000
05
#2645000
b10101101 m
r2645 N
b10010101010101000 H
15
#2650000
05
#2655000
b10101110 m
r2655 N
b10010101010100111 H
15
#2660000
05
#2665000
b10101111 m
r2665 N
b10010101010100110 H
15
#2670000
05
#2675000
b10110000 m
r2675 N
b10010101010100101 H
15
#2680000
05
#2685000
b10110001 m
r2685 N
b10010101010100100 H
15
#2690000
05
#2695000
b10110010 m
r2695 N
b10010101010100011 H
15
#2700000
05
#2705000
b10110011 m
r2705 N
b10010101010100010 H
15
#2710000
05
#2715000
b10110100 m
r2715 N
b10010101010100001 H
15
#2720000
05
#2725000
b10110101 m
r2725 N
b10010101010100000 H
15
#2730000
05
#2735000
b10110110 m
r2735 N
b10010101010011111 H
15
#2740000
05
#2745000
b10110111 m
r2745 N
b10010101010011110 H
15
#2750000
05
#2755000
b10111000 m
r2755 N
b10010101010011101 H
15
#2760000
05
#2765000
b10111001 m
r2765 N
b10010101010011100 H
15
#2770000
05
#2775000
b10111010 m
r2775 N
b10010101010011011 H
15
#2780000
05
#2785000
b10111011 m
r2785 N
b10010101010011010 H
15
#2790000
05
#2795000
b10111100 m
r2795 N
b10010101010011001 H
15
#2800000
05
#2805000
b10111101 m
r2805 N
b10010101010011000 H
15
#2810000
05
#2815000
b10111110 m
r2815 N
b10010101010010111 H
15
#2820000
05
#2825000
b10111111 m
r2825 N
b10010101010010110 H
15
#2830000
05
#2835000
b11000000 m
r2835 N
b10010101010010101 H
15
#2840000
05
#2845000
b11000001 m
r2845 N
b10010101010010100 H
15
#2850000
05
#2855000
b11000010 m
r2855 N
b10010101010010011 H
15
#2860000
05
#2865000
b11000011 m
r2865 N
b10010101010010010 H
15
#2870000
05
#2875000
b11000100 m
r2875 N
b10010101010010001 H
15
#2880000
05
#2885000
b11000101 m
r2885 N
b10010101010010000 H
15
#2890000
05
#2895000
b11000110 m
r2895 N
b10010101010001111 H
15
#2900000
05
#2905000
b11000111 m
r2905 N
b10010101010001110 H
15
#2910000
05
#2915000
b11001000 m
r2915 N
b10010101010001101 H
15
#2920000
05
#2925000
b11001001 m
r2925 N
b10010101010001100 H
15
#2930000
05
#2935000
b11001010 m
r2935 N
b10010101010001011 H
15
#2940000
05
#2945000
b11001011 m
r2945 N
b10010101010001010 H
15
#2950000
05
#2955000
b11001100 m
r2955 N
b10010101010001001 H
15
#2960000
05
#2965000
b11001101 m
r2965 N
b10010101010001000 H
15
#2970000
05
#2975000
b11001110 m
r2975 N
b10010101010000111 H
15
#2980000
05
#2985000
b11001111 m
r2985 N
b10010101010000110 H
15
#2990000
05
#2995000
b11010000 m
r2995 N
b10010101010000101 H
15
#3000000
05
#3005000
b11010001 m
r3005 N
b10010101010000100 H
15
#3010000
05
#3015000
b11010010 m
r3015 N
b10010101010000011 H
15
#3020000
05
#3025000
b11010011 m
r3025 N
b10010101010000010 H
15
#3030000
05
#3035000
b11010100 m
r3035 N
b10010101010000001 H
15
#3040000
05
#3045000
b11010101 m
r3045 N
b10010101010000000 H
15
#3050000
05
#3055000
b11010110 m
r3055 N
b10010101001111111 H
15
#3060000
05
#3065000
b11010111 m
r3065 N
b10010101001111110 H
15
#3070000
05
#3075000
b11011000 m
r3075 N
b10010101001111101 H
15
#3080000
05
#3085000
b11011001 m
r3085 N
b10010101001111100 H
15
#3090000
05
#3095000
b11011010 m
r3095 N
b10010101001111011 H
15
#3100000
05
#3105000
b11011011 m
r3105 N
b10010101001111010 H
15
#3110000
05
#3115000
b11011100 m
r3115 N
b10010101001111001 H
15
#3120000
05
#3125000
b11011101 m
r3125 N
b10010101001111000 H
15
#3130000
05
#3135000
b11011110 m
r3135 N
b10010101001110111 H
15
#3140000
05
#3145000
b11011111 m
r3145 N
b10010101001110110 H
15
#3150000
05
#3155000
b11100000 m
r3155 N
b10010101001110101 H
15
#3160000
05
#3165000
b11100001 m
r3165 N
b10010101001110100 H
15
#3170000
05
#3175000
b11100010 m
r3175 N
b10010101001110011 H
15
#3180000
05
#3185000
b11100011 m
r3185 N
b10010101001110010 H
15
#3190000
05
#3195000
b11100100 m
r3195 N
b10010101001110001 H
15
#3200000
05
#3205000
b11100101 m
r3205 N
b10010101001110000 H
15
#3210000
05
#3215000
b11100110 m
r3215 N
b10010101001101111 H
15
#3220000
05
#3225000
b11100111 m
r3225 N
b10010101001101110 H
15
#3230000
05
#3235000
b11101000 m
r3235 N
b10010101001101101 H
15
#3240000
05
#3245000
b11101001 m
r3245 N
b10010101001101100 H
15
#3250000
05
#3255000
b11101010 m
r3255 N
b10010101001101011 H
15
#3260000
05
#3265000
b11101011 m
r3265 N
b10010101001101010 H
15
#3270000
05
#3275000
b11101100 m
r3275 N
b10010101001101001 H
15
#3280000
05
#3285000
b11101101 m
r3285 N
b10010101001101000 H
15
#3290000
05
#3295000
b11101110 m
r3295 N
b10010101001100111 H
15
#3300000
05
#3305000
b11101111 m
r3305 N
b10010101001100110 H
15
#3310000
05
#3315000
b11110000 m
r3315 N
b10010101001100101 H
15
#3320000
05
#3325000
b11110001 m
r3325 N
b10010101001100100 H
15
#3330000
05
#3335000
b11110010 m
r3335 N
b10010101001100011 H
15
#3340000
05
#3345000
b11110011 m
r3345 N
b10010101001100010 H
15
#3350000
05
#3355000
b11110100 m
r3355 N
b10010101001100001 H
15
#3360000
05
#3365000
b11110101 m
r3365 N
b10010101001100000 H
15
#3370000
05
#3375000
b11110110 m
r3375 N
b10010101001011111 H
15
#3380000
05
#3385000
b11110111 m
r3385 N
b10010101001011110 H
15
#3390000
05
#3395000
b11111000 m
r3395 N
b10010101001011101 H
15
#3400000
05
#3405000
b11111001 m
r3405 N
b10010101001011100 H
15
#3410000
05
#3415000
b11111010 m
r3415 N
b10010101001011011 H
15
#3420000
05
#3425000
b11111011 m
r3425 N
b10010101001011010 H
15
#3430000
05
#3435000
b11111100 m
r3435 N
b10010101001011001 H
15
#3440000
05
#3445000
b11111101 m
r3445 N
b10010101001011000 H
15
#3450000
05
#3455000
b11111110 m
r3455 N
b10010101001010111 H
15
#3460000
05
#3465000
b11111111 m
r3465 N
b10010101001010110 H
15
#3470000
05
#3475000
b100000000 m
r3475 N
b10010101001010101 H
15
#3480000
05
#3485000
b100000001 m
r3485 N
b10010101001010100 H
15
#3490000
05
#3495000
b100000010 m
r3495 N
b10010101001010011 H
15
#3500000
05
#3505000
b100000011 m
r3505 N
b10010101001010010 H
15
#3510000
05
#3515000
b100000100 m
r3515 N
b10010101001010001 H
15
#3520000
05
#3525000
b100000101 m
r3525 N
b10010101001010000 H
15
#3530000
05
#3535000
b100000110 m
r3535 N
b10010101001001111 H
15
#3540000
05
#3545000
b100000111 m
r3545 N
b10010101001001110 H
15
#3550000
05
#3555000
b100001000 m
r3555 N
b10010101001001101 H
15
#3560000
05
#3565000
b100001001 m
r3565 N
b10010101001001100 H
15
#3570000
05
#3575000
b100001010 m
r3575 N
b10010101001001011 H
15
#3580000
05
#3585000
b100001011 m
r3585 N
b10010101001001010 H
15
#3590000
05
#3595000
b100001100 m
r3595 N
b10010101001001001 H
15
#3600000
05
#3605000
b100001101 m
r3605 N
b10010101001001000 H
15
#3610000
05
#3615000
b100001110 m
r3615 N
b10010101001000111 H
15
